<svg width="14" height="9" viewBox="0 0 14 9" fill="none" xmlns="http://www.w3.org/2000/svg">
<g clip-path="url(#clip0)">
<path fill-rule="evenodd" clip-rule="evenodd" d="M6.89398 8.08607C7.09364 8.11892 7.30567 8.05834 7.45967 7.90435L12.9044 2.45964C13.1582 2.2058 13.1582 1.79423 12.9044 1.54038C12.6506 1.28654 12.239 1.28655 11.9851 1.5404L6.89398 6.63155L1.80281 1.54038C1.54897 1.28654 1.13742 1.28654 0.883584 1.54038C0.629743 1.79423 0.629721 2.2058 0.883562 2.45964L6.32828 7.90436C6.48227 8.05835 6.69432 8.11892 6.89398 8.08607Z" fill="#697882"/>
</g>
<defs>
<clipPath id="clip0">
<rect x="13.5" y="0.5" width="8" height="13" transform="rotate(90 13.5 0.5)" fill="white"/>
</clipPath>
</defs>
</svg>
