<svg xmlns="http://www.w3.org/2000/svg" width="12" height="12" viewBox="0 0 12 12">
  <g fill="none" fill-rule="evenodd" transform="translate(-6 -6)">
    <polygon fill="#111C24" fill-rule="nonzero" points="19 13 13 13 13 19 11 19 11 13 5 13 5 11 11 11 11 5 13 5 13 11 19 11" transform="rotate(45 12 12)"/>
    <polygon points="0 0 24 0 24 24 0 24"/>
  </g>
</svg>
